{
    "list" : [
        {
            "data" : {
                "id" : 1,
                "name" : "Ronen Cohen",
                "tags" : [1,2,5],
                "createdAt" : "2014-04-05T17:25:04Z"
            },
            "metadata" :{
                "links" : {
                    "self" : "/accounts/2"
                },
                "name" : {
                    "required" : true
                }
            }
        },
        {
            "data" : {
                "id" : 2,
                "name" : "Miri Kaplan",
                "tags" : [3,5],
                "createdAt" : "2014-04-06T17:25:04Z"
            },
            "metadata" :{
                "links" : {
                    "self" : "/pfm/accounts/3"
                }
            }
        },
        {
            "data" : {
                "id" : 3,
                "name" : "Igor Smirnov",
                "tags" : [3,5],
                "createdAt" : "2014-02-16T17:25:04Z"
            },
            "metadata" :{
                "links" : {
                    "self" : "/pfm/accounts/3"
                }
            }
        },
        {
            "data" : {
                "id" : 4,
                "name" : "Shalom Levi",
                "tags" : [1,4],
                "createdAt" : "2014-07-07T16:25:04Z"
            },
            "metadata" :{
                "links" : {
                    "self" : "/pfm/accounts/4"
                }
            }
        }
    ],
    "metadata" : {
        "links" : {
            "self" : "/pfm/accounts",
            "next" : "/pfm/accounts?offset=50&limit=50",
            "prev" : null
        },
        "count" : 2000
    }
}